EESchema Schematic File Version 4
LIBS:motors-driver-cache
EELAYER 26 0
EELAYER END
$Descr A4 11693 8268
encoding utf-8
Sheet 1 1
Title ""
Date ""
Rev ""
Comp ""
Comment1 ""
Comment2 ""
Comment3 ""
Comment4 ""
$EndDescr
$Comp
L 74xx:74HC595 U2
U 1 1 5BBA7D12
P 4100 4750
F 0 "U2" V 4146 4009 50  0000 R CNN
F 1 "74HC595" V 4055 4009 50  0000 R CNN
F 2 "Package_DIP:DIP-16_W7.62mm_Socket_LongPads" H 4100 4750 50  0001 C CNN
F 3 "http://www.ti.com/lit/ds/symlink/sn74hc595.pdf" H 4100 4750 50  0001 C CNN
	1    4100 4750
	0    -1   -1   0   
$EndComp
$Comp
L Driver_Motor:L293 U1
U 1 1 5BBA7F01
P 2750 2750
F 0 "U1" H 2750 3928 50  0000 C CNN
F 1 "L293" H 2750 3837 50  0000 C CNN
F 2 "Package_DIP:DIP-16_W7.62mm_Socket_LongPads" H 3000 2000 50  0001 L CNN
F 3 "http://www.ti.com/lit/ds/symlink/l293.pdf" H 2450 3450 50  0001 C CNN
	1    2750 2750
	1    0    0    -1  
$EndComp
$Comp
L Driver_Motor:L293 U3
U 1 1 5BBA7F9A
P 4450 2750
F 0 "U3" H 4450 3928 50  0000 C CNN
F 1 "L293" H 4450 3837 50  0000 C CNN
F 2 "Package_DIP:DIP-16_W7.62mm_Socket_LongPads" H 4700 2000 50  0001 L CNN
F 3 "http://www.ti.com/lit/ds/symlink/l293.pdf" H 4150 3450 50  0001 C CNN
	1    4450 2750
	1    0    0    -1  
$EndComp
$Comp
L Motor:Stepper_Motor_unipolar_5pin M1
U 1 1 5BBA8F22
P 2850 750
F 0 "M1" V 2820 562 50  0000 R CNN
F 1 "Motor" V 2729 562 50  0000 R CNN
F 2 "Connector_PinSocket_2.54mm:PinSocket_1x05_P2.54mm_Vertical" H 2860 740 50  0001 C CNN
F 3 "http://www.infineon.com/dgdl/Application-Note-TLE8110EE_driving_UniPolarStepperMotor_V1.1.pdf?fileId=db3a30431be39b97011be5d0aa0a00b0" H 2860 740 50  0001 C CNN
	1    2850 750 
	0    -1   -1   0   
$EndComp
$Comp
L Motor:Stepper_Motor_unipolar_5pin M2
U 1 1 5BBA9005
P 4450 800
F 0 "M2" V 4420 612 50  0000 R CNN
F 1 "Motor" V 4329 612 50  0000 R CNN
F 2 "Connector_PinSocket_2.54mm:PinSocket_1x05_P2.54mm_Vertical" H 4460 790 50  0001 C CNN
F 3 "http://www.infineon.com/dgdl/Application-Note-TLE8110EE_driving_UniPolarStepperMotor_V1.1.pdf?fileId=db3a30431be39b97011be5d0aa0a00b0" H 4460 790 50  0001 C CNN
	1    4450 800 
	0    -1   -1   0   
$EndComp
Wire Wire Line
	3250 2150 3400 2150
Wire Wire Line
	3400 2150 3400 1200
Wire Wire Line
	3400 1200 2950 1200
Wire Wire Line
	2950 1200 2950 1050
Wire Wire Line
	3250 2350 3650 2350
Wire Wire Line
	3650 2350 3650 450 
Wire Wire Line
	3650 450  2400 450 
Wire Wire Line
	2400 450  2400 650 
Wire Wire Line
	2400 650  2550 650 
Wire Wire Line
	3250 2750 3500 2750
Wire Wire Line
	3500 2750 3500 1350
Wire Wire Line
	3500 1350 2750 1350
Wire Wire Line
	2750 1350 2750 1050
Wire Wire Line
	3250 2950 3300 2950
Wire Wire Line
	3300 2950 3300 1450
Wire Wire Line
	3300 1450 2400 1450
Wire Wire Line
	2400 1450 2400 850 
Wire Wire Line
	2400 850  2550 850 
Wire Wire Line
	2250 2150 1950 2150
Wire Wire Line
	1950 2150 1950 4100
Wire Wire Line
	1950 4100 3700 4100
Wire Wire Line
	3700 4100 3700 4350
Wire Wire Line
	2250 2350 2000 2350
Wire Wire Line
	2000 2350 2000 4050
Wire Wire Line
	2000 4050 3800 4050
Wire Wire Line
	3800 4050 3800 4350
Wire Wire Line
	2250 2750 2100 2750
Wire Wire Line
	2100 2750 2100 3950
Wire Wire Line
	2100 3950 3900 3950
Wire Wire Line
	3900 3950 3900 4350
Wire Wire Line
	2250 2950 2150 2950
Wire Wire Line
	2150 2950 2150 3900
Wire Wire Line
	2150 3900 4000 3900
Wire Wire Line
	4000 3900 4000 4350
Wire Wire Line
	4100 4350 4100 3800
Wire Wire Line
	4100 3800 3700 3800
Wire Wire Line
	3700 3800 3700 2150
Wire Wire Line
	3700 2150 3950 2150
Wire Wire Line
	3950 2350 3750 2350
Wire Wire Line
	3750 2350 3750 3750
Wire Wire Line
	3750 3750 4200 3750
Wire Wire Line
	4200 3750 4200 4350
Wire Wire Line
	3950 2750 3800 2750
Wire Wire Line
	3800 2750 3800 3700
Wire Wire Line
	3800 3700 4300 3700
Wire Wire Line
	4300 3700 4300 4350
Wire Wire Line
	3950 2950 3850 2950
Wire Wire Line
	3850 2950 3850 3650
Wire Wire Line
	3850 3650 4400 3650
Wire Wire Line
	4400 3650 4400 4350
Wire Wire Line
	4950 2950 5100 2950
Wire Wire Line
	5100 2950 5100 1500
Wire Wire Line
	5100 1500 4050 1500
Wire Wire Line
	4050 1500 4050 900 
Wire Wire Line
	4050 900  4150 900 
Wire Wire Line
	4950 2750 5200 2750
Wire Wire Line
	5200 2750 5200 1400
Wire Wire Line
	5200 1400 4350 1400
Wire Wire Line
	4350 1400 4350 1100
Wire Wire Line
	4950 2150 5300 2150
Wire Wire Line
	5300 2150 5300 1300
Wire Wire Line
	5300 1300 4550 1300
Wire Wire Line
	4550 1300 4550 1100
Wire Wire Line
	4950 2350 5400 2350
Wire Wire Line
	5400 2350 5400 600 
Wire Wire Line
	5400 600  4050 600 
Wire Wire Line
	4050 600  4050 700 
Wire Wire Line
	4050 700  4150 700 
$Comp
L power:GND #PWR0102
U 1 1 5BBB4DAE
P 5050 4750
F 0 "#PWR0102" H 5050 4500 50  0001 C CNN
F 1 "GND" V 5055 4622 50  0000 R CNN
F 2 "" H 5050 4750 50  0001 C CNN
F 3 "" H 5050 4750 50  0001 C CNN
	1    5050 4750
	0    -1   -1   0   
$EndComp
$Comp
L power:GND #PWR0103
U 1 1 5BBB4DCF
P 2550 1050
F 0 "#PWR0103" H 2550 800 50  0001 C CNN
F 1 "GND" H 2555 877 50  0000 C CNN
F 2 "" H 2550 1050 50  0001 C CNN
F 3 "" H 2550 1050 50  0001 C CNN
	1    2550 1050
	1    0    0    -1  
$EndComp
$Comp
L power:GND #PWR0104
U 1 1 5BBB4EF2
P 4150 1100
F 0 "#PWR0104" H 4150 850 50  0001 C CNN
F 1 "GND" H 4155 927 50  0000 C CNN
F 2 "" H 4150 1100 50  0001 C CNN
F 3 "" H 4150 1100 50  0001 C CNN
	1    4150 1100
	1    0    0    -1  
$EndComp
Wire Wire Line
	4150 1000 4150 1100
Wire Wire Line
	2550 950  2550 1050
$Comp
L power:GND #PWR0105
U 1 1 5BBB71EE
P 2700 3650
F 0 "#PWR0105" H 2700 3400 50  0001 C CNN
F 1 "GND" H 2705 3477 50  0000 C CNN
F 2 "" H 2700 3650 50  0001 C CNN
F 3 "" H 2700 3650 50  0001 C CNN
	1    2700 3650
	1    0    0    -1  
$EndComp
$Comp
L power:GND #PWR0106
U 1 1 5BBB7203
P 4600 3650
F 0 "#PWR0106" H 4600 3400 50  0001 C CNN
F 1 "GND" H 4605 3477 50  0000 C CNN
F 2 "" H 4600 3650 50  0001 C CNN
F 3 "" H 4600 3650 50  0001 C CNN
	1    4600 3650
	1    0    0    -1  
$EndComp
Wire Wire Line
	2550 3550 2550 3600
Wire Wire Line
	2550 3600 2650 3600
Wire Wire Line
	2650 3600 2650 3550
Wire Wire Line
	2650 3600 2650 3650
Wire Wire Line
	2650 3650 2700 3650
Connection ~ 2650 3600
Wire Wire Line
	2650 3600 2850 3600
Wire Wire Line
	2850 3600 2850 3550
Wire Wire Line
	2850 3600 2950 3600
Wire Wire Line
	2950 3600 2950 3550
Connection ~ 2850 3600
Wire Wire Line
	4550 3550 4350 3550
Wire Wire Line
	4550 3550 4650 3550
Connection ~ 4550 3550
Wire Wire Line
	4650 3550 4650 3650
Wire Wire Line
	4650 3650 4600 3650
Connection ~ 4650 3550
$Comp
L power:VCC #PWR0107
U 1 1 5BBC313B
P 2200 1750
F 0 "#PWR0107" H 2200 1600 50  0001 C CNN
F 1 "VCC" H 2217 1923 50  0000 C CNN
F 2 "" H 2200 1750 50  0001 C CNN
F 3 "" H 2200 1750 50  0001 C CNN
	1    2200 1750
	1    0    0    -1  
$EndComp
$Comp
L power:VCC #PWR0108
U 1 1 5BBC3155
P 3900 1800
F 0 "#PWR0108" H 3900 1650 50  0001 C CNN
F 1 "VCC" H 3917 1973 50  0000 C CNN
F 2 "" H 3900 1800 50  0001 C CNN
F 3 "" H 3900 1800 50  0001 C CNN
	1    3900 1800
	1    0    0    -1  
$EndComp
Wire Wire Line
	2850 1750 2850 1650
Wire Wire Line
	2850 1650 2950 1650
Wire Wire Line
	4550 1650 4700 1650
Wire Wire Line
	2250 3150 2200 3150
Wire Wire Line
	2200 3150 2200 2550
Wire Wire Line
	2200 2550 2250 2550
Wire Wire Line
	2200 2550 2200 1750
Wire Wire Line
	2200 1750 2650 1750
Connection ~ 2200 2550
Connection ~ 2200 1750
Wire Wire Line
	3950 3150 3900 3150
Wire Wire Line
	3900 3150 3900 2550
Wire Wire Line
	3900 2550 3950 2550
Wire Wire Line
	3900 2550 3900 1800
Connection ~ 3900 2550
$Comp
L power:+5V #PWR0110
U 1 1 5BBD2399
P 2950 1650
F 0 "#PWR0110" H 2950 1500 50  0001 C CNN
F 1 "+5V" V 2965 1778 50  0000 L CNN
F 2 "" H 2950 1650 50  0001 C CNN
F 3 "" H 2950 1650 50  0001 C CNN
	1    2950 1650
	0    1    1    0   
$EndComp
$Comp
L power:+5V #PWR0111
U 1 1 5BBD23B3
P 4700 1650
F 0 "#PWR0111" H 4700 1500 50  0001 C CNN
F 1 "+5V" V 4715 1778 50  0000 L CNN
F 2 "" H 4700 1650 50  0001 C CNN
F 3 "" H 4700 1650 50  0001 C CNN
	1    4700 1650
	0    1    1    0   
$EndComp
$Comp
L power:VCC #PWR0112
U 1 1 5BBD253A
P 3250 4750
F 0 "#PWR0112" H 3250 4600 50  0001 C CNN
F 1 "VCC" V 3268 4877 50  0000 L CNN
F 2 "" H 3250 4750 50  0001 C CNN
F 3 "" H 3250 4750 50  0001 C CNN
	1    3250 4750
	0    -1   -1   0   
$EndComp
Wire Wire Line
	4800 4750 5050 4750
$Comp
L power:VCC #PWR0113
U 1 1 5BBE2A89
P 4000 5250
F 0 "#PWR0113" H 4000 5100 50  0001 C CNN
F 1 "VCC" H 4018 5423 50  0000 C CNN
F 2 "" H 4000 5250 50  0001 C CNN
F 3 "" H 4000 5250 50  0001 C CNN
	1    4000 5250
	-1   0    0    1   
$EndComp
Wire Wire Line
	4000 5150 4000 5250
$Comp
L power:GND #PWR0114
U 1 1 5BBE5927
P 4300 5250
F 0 "#PWR0114" H 4300 5000 50  0001 C CNN
F 1 "GND" V 4305 5122 50  0000 R CNN
F 2 "" H 4300 5250 50  0001 C CNN
F 3 "" H 4300 5250 50  0001 C CNN
	1    4300 5250
	0    -1   -1   0   
$EndComp
Wire Wire Line
	4300 5150 4300 5250
$Comp
L Connector:Conn_01x02_Male J2
U 1 1 5BBEBE2D
P 2150 5850
F 0 "J2" V 2303 5663 50  0000 R CNN
F 1 "Power 5v" V 2212 5663 50  0000 R CNN
F 2 "Connector_PinSocket_2.54mm:PinSocket_1x02_P2.54mm_Vertical" H 2150 5850 50  0001 C CNN
F 3 "~" H 2150 5850 50  0001 C CNN
	1    2150 5850
	0    -1   -1   0   
$EndComp
$Comp
L Connector:Conn_01x02_Male J3
U 1 1 5BBEBEAF
P 2150 5150
F 0 "J3" V 2303 4963 50  0000 R CNN
F 1 "Logic VCC" V 2212 4963 50  0000 R CNN
F 2 "Connector_PinSocket_2.54mm:PinSocket_1x02_P2.54mm_Vertical" H 2150 5150 50  0001 C CNN
F 3 "~" H 2150 5150 50  0001 C CNN
	1    2150 5150
	0    -1   -1   0   
$EndComp
$Comp
L power:VCC #PWR03
U 1 1 5BBEBEED
P 2150 4750
F 0 "#PWR03" H 2150 4600 50  0001 C CNN
F 1 "VCC" V 2168 4877 50  0000 L CNN
F 2 "" H 2150 4750 50  0001 C CNN
F 3 "" H 2150 4750 50  0001 C CNN
	1    2150 4750
	0    -1   -1   0   
$EndComp
$Comp
L power:GND #PWR04
U 1 1 5BBEBF18
P 2250 4750
F 0 "#PWR04" H 2250 4500 50  0001 C CNN
F 1 "GND" V 2255 4622 50  0000 R CNN
F 2 "" H 2250 4750 50  0001 C CNN
F 3 "" H 2250 4750 50  0001 C CNN
	1    2250 4750
	0    -1   -1   0   
$EndComp
$Comp
L power:GND #PWR02
U 1 1 5BBEBF33
P 2250 5450
F 0 "#PWR02" H 2250 5200 50  0001 C CNN
F 1 "GND" V 2255 5322 50  0000 R CNN
F 2 "" H 2250 5450 50  0001 C CNN
F 3 "" H 2250 5450 50  0001 C CNN
	1    2250 5450
	0    -1   -1   0   
$EndComp
$Comp
L power:+5V #PWR01
U 1 1 5BBEC1C4
P 2150 5450
F 0 "#PWR01" H 2150 5300 50  0001 C CNN
F 1 "+5V" V 2165 5578 50  0000 L CNN
F 2 "" H 2150 5450 50  0001 C CNN
F 3 "" H 2150 5450 50  0001 C CNN
	1    2150 5450
	0    -1   -1   0   
$EndComp
Wire Wire Line
	2250 5450 2250 5650
Wire Wire Line
	2150 5450 2150 5600
Wire Wire Line
	2250 4750 2250 4900
Wire Wire Line
	2150 4750 2150 4900
Wire Wire Line
	4350 1750 4000 1750
Wire Wire Line
	4000 1750 4000 1800
Wire Wire Line
	4000 1800 3900 1800
Connection ~ 3900 1800
Wire Wire Line
	4550 1650 4550 1750
Wire Wire Line
	4350 3550 4250 3550
Connection ~ 4350 3550
Wire Wire Line
	3250 4750 3500 4750
$Comp
L power:PWR_FLAG #FLG0101
U 1 1 5BC14BB5
P 2150 5600
F 0 "#FLG0101" H 2150 5675 50  0001 C CNN
F 1 "PWR_FLAG" V 2150 5728 50  0000 L CNN
F 2 "" H 2150 5600 50  0001 C CNN
F 3 "~" H 2150 5600 50  0001 C CNN
	1    2150 5600
	0    -1   -1   0   
$EndComp
Connection ~ 2150 5600
Wire Wire Line
	2150 5600 2150 5650
$Comp
L power:PWR_FLAG #FLG0102
U 1 1 5BC14BF1
P 2150 4900
F 0 "#FLG0102" H 2150 4975 50  0001 C CNN
F 1 "PWR_FLAG" V 2150 5028 50  0000 L CNN
F 2 "" H 2150 4900 50  0001 C CNN
F 3 "~" H 2150 4900 50  0001 C CNN
	1    2150 4900
	0    -1   -1   0   
$EndComp
Connection ~ 2150 4900
Wire Wire Line
	2150 4900 2150 4950
$Comp
L power:PWR_FLAG #FLG0103
U 1 1 5BC14C5F
P 2250 4900
F 0 "#FLG0103" H 2250 4975 50  0001 C CNN
F 1 "PWR_FLAG" V 2250 5028 50  0000 L CNN
F 2 "" H 2250 4900 50  0001 C CNN
F 3 "~" H 2250 4900 50  0001 C CNN
	1    2250 4900
	0    1    1    0   
$EndComp
Connection ~ 2250 4900
Wire Wire Line
	2250 4900 2250 4950
Wire Wire Line
	4600 4350 4600 4300
Text GLabel 4200 5150 3    50   Input ~ 0
LATCH
Text GLabel 3900 5150 3    50   Input ~ 0
CLOCK
Text GLabel 3700 5150 3    50   Input ~ 0
DATA
$Comp
L Connector:Conn_01x03_Male J1
U 1 1 5BC52148
P 5950 4750
F 0 "J1" V 6103 4563 50  0000 R CNN
F 1 "Data Output" V 6012 4563 50  0000 R CNN
F 2 "Connector_PinSocket_2.54mm:PinSocket_1x03_P2.54mm_Vertical" H 5950 4750 50  0001 C CNN
F 3 "~" H 5950 4750 50  0001 C CNN
	1    5950 4750
	0    -1   -1   0   
$EndComp
Text GLabel 4600 4300 1    50   Input ~ 0
QH'
Text GLabel 5850 4550 1    50   Input ~ 0
QH'
Text GLabel 6050 4550 1    50   Input ~ 0
LATCH
Text GLabel 5950 4550 1    50   Input ~ 0
CLOCK
$Comp
L Connector:Conn_01x03_Male J4
U 1 1 5BC5259C
P 5950 5450
F 0 "J4" V 6103 5263 50  0000 R CNN
F 1 "Data Input" V 6012 5263 50  0000 R CNN
F 2 "Connector_PinSocket_2.54mm:PinSocket_1x03_P2.54mm_Vertical" H 5950 5450 50  0001 C CNN
F 3 "~" H 5950 5450 50  0001 C CNN
	1    5950 5450
	0    -1   -1   0   
$EndComp
Text GLabel 5850 5250 1    50   Input ~ 0
DATA
Text GLabel 5950 5250 1    50   Input ~ 0
CLOCK
Text GLabel 6050 5250 1    50   Input ~ 0
LATCH
$Comp
L Mechanical:MountingHole H1
U 1 1 5BBFBFDB
P 1850 750
F 0 "H1" H 1950 796 50  0000 L CNN
F 1 "MountingHole" H 1950 705 50  0000 L CNN
F 2 "MountingHole:MountingHole_2.5mm" H 1850 750 50  0001 C CNN
F 3 "~" H 1850 750 50  0001 C CNN
	1    1850 750 
	1    0    0    -1  
$EndComp
$Comp
L Mechanical:MountingHole H2
U 1 1 5BBFC08B
P 1850 1050
F 0 "H2" H 1950 1096 50  0000 L CNN
F 1 "MountingHole" H 1950 1005 50  0000 L CNN
F 2 "MountingHole:MountingHole_2.5mm" H 1850 1050 50  0001 C CNN
F 3 "~" H 1850 1050 50  0001 C CNN
	1    1850 1050
	1    0    0    -1  
$EndComp
$EndSCHEMATC
