(export (version D)
  (design
    (source /home/avernois/devel/avernois/split-flap/pcb/motors-driver/motors-driver.sch)
    (date "jeu. 11 oct. 2018 19:40:35 CEST")
    (tool "Eeschema 5.0.0-fee4fd1~66~ubuntu18.04.1")
    (sheet (number 1) (name /) (tstamps /)
      (title_block
        (title)
        (company)
        (rev)
        (date)
        (source motors-driver.sch)
        (comment (number 1) (value ""))
        (comment (number 2) (value ""))
        (comment (number 3) (value ""))
        (comment (number 4) (value "")))))
  (components
    (comp (ref U2)
      (value 74HC595)
      (footprint Package_DIP:DIP-16_W7.62mm_Socket_LongPads)
      (datasheet http://www.ti.com/lit/ds/symlink/sn74hc595.pdf)
      (libsource (lib 74xx) (part 74HC595) (description "8-bit serial in/out Shift Register 3-State Outputs"))
      (sheetpath (names /) (tstamps /))
      (tstamp 5BBA7D12))
    (comp (ref U1)
      (value L293)
      (footprint Package_DIP:DIP-16_W7.62mm_Socket_LongPads)
      (datasheet http://www.ti.com/lit/ds/symlink/l293.pdf)
      (libsource (lib Driver_Motor) (part L293) (description "Quadruple Half-H Drivers"))
      (sheetpath (names /) (tstamps /))
      (tstamp 5BBA7F01))
    (comp (ref U3)
      (value L293)
      (footprint Package_DIP:DIP-16_W7.62mm_Socket_LongPads)
      (datasheet http://www.ti.com/lit/ds/symlink/l293.pdf)
      (libsource (lib Driver_Motor) (part L293) (description "Quadruple Half-H Drivers"))
      (sheetpath (names /) (tstamps /))
      (tstamp 5BBA7F9A))
    (comp (ref M1)
      (value Motor)
      (footprint Connector_PinSocket_2.54mm:PinSocket_1x05_P2.54mm_Vertical)
      (datasheet http://www.infineon.com/dgdl/Application-Note-TLE8110EE_driving_UniPolarStepperMotor_V1.1.pdf?fileId=db3a30431be39b97011be5d0aa0a00b0)
      (libsource (lib Motor) (part Stepper_Motor_unipolar_5pin) (description "5-wire unipolar stepper motor"))
      (sheetpath (names /) (tstamps /))
      (tstamp 5BBA8F22))
    (comp (ref M2)
      (value Motor)
      (footprint Connector_PinSocket_2.54mm:PinSocket_1x05_P2.54mm_Vertical)
      (datasheet http://www.infineon.com/dgdl/Application-Note-TLE8110EE_driving_UniPolarStepperMotor_V1.1.pdf?fileId=db3a30431be39b97011be5d0aa0a00b0)
      (libsource (lib Motor) (part Stepper_Motor_unipolar_5pin) (description "5-wire unipolar stepper motor"))
      (sheetpath (names /) (tstamps /))
      (tstamp 5BBA9005))
    (comp (ref J2)
      (value "Power 5v")
      (footprint Connector_PinSocket_2.54mm:PinSocket_1x02_P2.54mm_Vertical)
      (datasheet ~)
      (libsource (lib Connector) (part Conn_01x02_Male) (description "Generic connector, single row, 01x02, script generated (kicad-library-utils/schlib/autogen/connector/)"))
      (sheetpath (names /) (tstamps /))
      (tstamp 5BBEBE2D))
    (comp (ref J3)
      (value "Logic VCC")
      (footprint Connector_PinSocket_2.54mm:PinSocket_1x02_P2.54mm_Vertical)
      (datasheet ~)
      (libsource (lib Connector) (part Conn_01x02_Male) (description "Generic connector, single row, 01x02, script generated (kicad-library-utils/schlib/autogen/connector/)"))
      (sheetpath (names /) (tstamps /))
      (tstamp 5BBEBEAF))
    (comp (ref J1)
      (value "Data Output")
      (footprint Connector_PinSocket_2.54mm:PinSocket_1x03_P2.54mm_Vertical)
      (datasheet ~)
      (libsource (lib Connector) (part Conn_01x03_Male) (description "Generic connector, single row, 01x03, script generated (kicad-library-utils/schlib/autogen/connector/)"))
      (sheetpath (names /) (tstamps /))
      (tstamp 5BC52148))
    (comp (ref J4)
      (value "Data Input")
      (footprint Connector_PinSocket_2.54mm:PinSocket_1x03_P2.54mm_Vertical)
      (datasheet ~)
      (libsource (lib Connector) (part Conn_01x03_Male) (description "Generic connector, single row, 01x03, script generated (kicad-library-utils/schlib/autogen/connector/)"))
      (sheetpath (names /) (tstamps /))
      (tstamp 5BC5259C))
    (comp (ref H1)
      (value MountingHole)
      (footprint MountingHole:MountingHole_2.5mm)
      (datasheet ~)
      (libsource (lib Mechanical) (part MountingHole) (description "Mounting Hole without connection"))
      (sheetpath (names /) (tstamps /))
      (tstamp 5BBFBFDB))
    (comp (ref H2)
      (value MountingHole)
      (footprint MountingHole:MountingHole_2.5mm)
      (datasheet ~)
      (libsource (lib Mechanical) (part MountingHole) (description "Mounting Hole without connection"))
      (sheetpath (names /) (tstamps /))
      (tstamp 5BBFC08B)))
  (libparts
    (libpart (lib 74xx) (part 74HC595)
      (aliases
        (alias 74LS595)
        (alias 74HCT595))
      (description "8-bit serial in/out Shift Register 3-State Outputs")
      (docs http://www.ti.com/lit/ds/symlink/sn74hc595.pdf)
      (footprints
        (fp DIP*W7.62mm*)
        (fp SOIC*3.9x9.9mm*P1.27mm*)
        (fp TSSOP*4.4x5mm*P0.65mm*)
        (fp SOIC*5.3x10.2mm*P1.27mm*)
        (fp SOIC*7.5x10.3mm*P1.27mm*))
      (fields
        (field (name Reference) U)
        (field (name Value) 74HC595))
      (pins
        (pin (num 1) (name QB) (type 3state))
        (pin (num 2) (name QC) (type 3state))
        (pin (num 3) (name QD) (type 3state))
        (pin (num 4) (name QE) (type 3state))
        (pin (num 5) (name QF) (type 3state))
        (pin (num 6) (name QG) (type 3state))
        (pin (num 7) (name QH) (type 3state))
        (pin (num 8) (name GND) (type power_in))
        (pin (num 9) (name QH') (type output))
        (pin (num 10) (name ~SRCLR) (type input))
        (pin (num 11) (name SRCLK) (type input))
        (pin (num 12) (name RCLK) (type input))
        (pin (num 13) (name ~OE) (type input))
        (pin (num 14) (name SER) (type input))
        (pin (num 15) (name QA) (type 3state))
        (pin (num 16) (name VCC) (type power_in))))
    (libpart (lib Connector) (part Conn_01x02_Male)
      (description "Generic connector, single row, 01x02, script generated (kicad-library-utils/schlib/autogen/connector/)")
      (docs ~)
      (footprints
        (fp Connector*:*_1x??_*))
      (fields
        (field (name Reference) J)
        (field (name Value) Conn_01x02_Male))
      (pins
        (pin (num 1) (name Pin_1) (type passive))
        (pin (num 2) (name Pin_2) (type passive))))
    (libpart (lib Connector) (part Conn_01x03_Male)
      (description "Generic connector, single row, 01x03, script generated (kicad-library-utils/schlib/autogen/connector/)")
      (docs ~)
      (footprints
        (fp Connector*:*_1x??_*))
      (fields
        (field (name Reference) J)
        (field (name Value) Conn_01x03_Male))
      (pins
        (pin (num 1) (name Pin_1) (type passive))
        (pin (num 2) (name Pin_2) (type passive))
        (pin (num 3) (name Pin_3) (type passive))))
    (libpart (lib Driver_Motor) (part L293)
      (aliases
        (alias L293D))
      (description "Quadruple Half-H Drivers")
      (docs http://www.ti.com/lit/ds/symlink/l293.pdf)
      (footprints
        (fp DIP*W7.62mm*))
      (fields
        (field (name Reference) U)
        (field (name Value) L293)
        (field (name Footprint) Package_DIP:DIP-16_W7.62mm))
      (pins
        (pin (num 1) (name EN1,2) (type input))
        (pin (num 2) (name 1A) (type input))
        (pin (num 3) (name 1Y) (type output))
        (pin (num 4) (name GND) (type power_in))
        (pin (num 5) (name GND) (type power_in))
        (pin (num 6) (name 2Y) (type output))
        (pin (num 7) (name 2A) (type input))
        (pin (num 8) (name VCC2) (type power_in))
        (pin (num 9) (name EN3,4) (type input))
        (pin (num 10) (name 3A) (type input))
        (pin (num 11) (name 3Y) (type output))
        (pin (num 12) (name GND) (type power_in))
        (pin (num 13) (name GND) (type power_in))
        (pin (num 14) (name 4Y) (type output))
        (pin (num 15) (name 4A) (type input))
        (pin (num 16) (name VCC1) (type power_in))))
    (libpart (lib Mechanical) (part MountingHole)
      (description "Mounting Hole without connection")
      (docs ~)
      (footprints
        (fp MountingHole*))
      (fields
        (field (name Reference) H)
        (field (name Value) MountingHole)))
    (libpart (lib Motor) (part Stepper_Motor_unipolar_5pin)
      (description "5-wire unipolar stepper motor")
      (docs http://www.infineon.com/dgdl/Application-Note-TLE8110EE_driving_UniPolarStepperMotor_V1.1.pdf?fileId=db3a30431be39b97011be5d0aa0a00b0)
      (footprints
        (fp PinHeader*P2.54mm*)
        (fp TerminalBlock*))
      (fields
        (field (name Reference) M)
        (field (name Value) Stepper_Motor_unipolar_5pin))
      (pins
        (pin (num 1) (name ~) (type passive))
        (pin (num 2) (name ~) (type passive))
        (pin (num 3) (name -) (type passive))
        (pin (num 4) (name ~) (type passive))
        (pin (num 5) (name ~) (type passive)))))
  (libraries
    (library (logical 74xx)
      (uri /home/avernois/devel/kicad/kicad-symbols/74xx.lib))
    (library (logical Connector)
      (uri /home/avernois/devel/kicad/kicad-symbols/Connector.lib))
    (library (logical Driver_Motor)
      (uri /home/avernois/devel/kicad/kicad-symbols/Driver_Motor.lib))
    (library (logical Mechanical)
      (uri /home/avernois/devel/kicad/kicad-symbols/Mechanical.lib))
    (library (logical Motor)
      (uri /home/avernois/devel/kicad/kicad-symbols/Motor.lib)))
  (nets
    (net (code 1) (name VCC)
      (node (ref U2) (pin 16))
      (node (ref U2) (pin 10))
      (node (ref U3) (pin 9))
      (node (ref U3) (pin 16))
      (node (ref U3) (pin 1))
      (node (ref U1) (pin 9))
      (node (ref J3) (pin 1))
      (node (ref U1) (pin 1))
      (node (ref U1) (pin 16)))
    (net (code 2) (name +5V)
      (node (ref J2) (pin 1))
      (node (ref U1) (pin 8))
      (node (ref U3) (pin 8)))
    (net (code 3) (name "Net-(M2-Pad3)")
      (node (ref U3) (pin 6))
      (node (ref M2) (pin 3)))
    (net (code 4) (name GND)
      (node (ref U1) (pin 5))
      (node (ref J3) (pin 2))
      (node (ref U1) (pin 13))
      (node (ref J2) (pin 2))
      (node (ref U1) (pin 4))
      (node (ref U1) (pin 12))
      (node (ref U2) (pin 8))
      (node (ref U2) (pin 13))
      (node (ref M2) (pin 1))
      (node (ref M1) (pin 1))
      (node (ref U3) (pin 5))
      (node (ref U3) (pin 4))
      (node (ref U3) (pin 13))
      (node (ref U3) (pin 12)))
    (net (code 5) (name QH')
      (node (ref U2) (pin 9))
      (node (ref J1) (pin 1)))
    (net (code 6) (name "Net-(U2-Pad6)")
      (node (ref U2) (pin 6))
      (node (ref U3) (pin 10)))
    (net (code 7) (name "Net-(M2-Pad4)")
      (node (ref U3) (pin 11))
      (node (ref M2) (pin 4)))
    (net (code 8) (name "Net-(M2-Pad2)")
      (node (ref M2) (pin 2))
      (node (ref U3) (pin 14)))
    (net (code 9) (name "Net-(U2-Pad7)")
      (node (ref U3) (pin 15))
      (node (ref U2) (pin 7)))
    (net (code 10) (name "Net-(M2-Pad5)")
      (node (ref M2) (pin 5))
      (node (ref U3) (pin 3)))
    (net (code 11) (name "Net-(U1-Pad7)")
      (node (ref U1) (pin 7))
      (node (ref U2) (pin 1)))
    (net (code 12) (name "Net-(U2-Pad5)")
      (node (ref U2) (pin 5))
      (node (ref U3) (pin 7)))
    (net (code 13) (name "Net-(M1-Pad5)")
      (node (ref U1) (pin 3))
      (node (ref M1) (pin 5)))
    (net (code 14) (name CLOCK)
      (node (ref U2) (pin 11))
      (node (ref J1) (pin 2))
      (node (ref J4) (pin 2)))
    (net (code 15) (name LATCH)
      (node (ref U2) (pin 12))
      (node (ref J4) (pin 3))
      (node (ref J1) (pin 3)))
    (net (code 16) (name DATA)
      (node (ref U2) (pin 14))
      (node (ref J4) (pin 1)))
    (net (code 17) (name "Net-(U2-Pad4)")
      (node (ref U3) (pin 2))
      (node (ref U2) (pin 4)))
    (net (code 18) (name "Net-(U1-Pad10)")
      (node (ref U1) (pin 10))
      (node (ref U2) (pin 2)))
    (net (code 19) (name "Net-(M1-Pad4)")
      (node (ref M1) (pin 4))
      (node (ref U1) (pin 11)))
    (net (code 20) (name "Net-(M1-Pad2)")
      (node (ref M1) (pin 2))
      (node (ref U1) (pin 14)))
    (net (code 21) (name "Net-(U1-Pad2)")
      (node (ref U1) (pin 2))
      (node (ref U2) (pin 15)))
    (net (code 22) (name "Net-(M1-Pad3)")
      (node (ref U1) (pin 6))
      (node (ref M1) (pin 3)))
    (net (code 23) (name "Net-(U1-Pad15)")
      (node (ref U2) (pin 3))
      (node (ref U1) (pin 15)))))